%YAML 1.1
%TAG !u! tag:unity3d.com,2011:
--- !u!1045 &1
EditorBuildSettings:
  m_ObjectHideFlags: 0
  serializedVersion: 2
  m_Scenes:
  - enabled: 1
    path: Assets/Yodo1Ads/Sample/Yodo1Test.unity
    guid: 9aa5866e47649407fb066afebf56e4c9
  m_configObjects: {}
